*** Life<FredkinCell> 18x28 ***

Generation = 0, Population = 112.
-----0---0----------00--00--
----0---0---0--00-0--00-0---
0--------------00-0-------0-
---0----------0-0--0-----0--
----0--0-------000--------0-
0----------------0-0-0----0-
--0-----00----0-0-00--0-0--0
---0-0-0000---0---00--0-----
---0--0------0---0-0--------
-0--0-----0-----0-----------
--00----00-0----0--000------
-0--0-----0-0-0--0-----0----
--------------------0-------
-0-----0-0-0---0---0--------
-------0--0---0----0----00--
0------0----0-----0----0---0
0-0---0-0--------0--------00
-----0----------0--0--0-0---

*** Life<FredkinCell> 26x45 ***

Generation = 0, Population = 206.
-------------0-------0--------0------0----0--
-------0----00-----------00-0----0-----------
-0-------00-0-0-----0------------0---------0-
0----0-----0---0--00-0---0-0-0------0--------
--0-0----0------0--------0---0-0--------0----
-------0----000----000-0-0-----------0-0-----
-----00--00--0-0--------0------------0-----0-
--0------0-0---0-0--0-----00------------0-0--
0---------0-------------00-0----0--0-0-----0-
-0---------0-0---000---0---00---0-----0------
-0---0------0--------------0----------0----0-
--0--0------0----0--0---0-------------00-----
0-0------------------00---------------00---00
-----00-----0---0---0--------0--------0------
0----0------0-0--0------0---00-----0-0----0--
---------0-----0---------0---0---------0-----
-0----0--------0------------0----------------
0--00-----------0-------0---------0------0---
------------------00--00----0-----------00---
0---------0-0-0-0---0--0--0-------------00---
---0-------000----------0---0----0-----------
-----00---0--0--------------0--0---0--00-----
---0----0------------0--------0-------0---0--
-----0---0---------------0-------0----------0
------------------------0-0-----------000----
---------00-----0---0-0----0000-----00----0--

Generation = 62, Population = 590.
+6--+-+-+++-+---+++-+--+-++--+++--9+4--+++++-
-+9-+--8-----++----+-+++-++++-++++-6-+--+-++-
+-++--++8--+++++-++++++---+---9------++--+--+
++++++7------++-+8--+---+----+-++--+3---+---8
----+------++9-----++---+-+--++++-+-----++---
--+-++--8---+-8+---+-++---------++----+-++++-
--+-++-8+---+-+-+--++-+-++-+++9++-+++--+++-+-
+--+-+-------++--+++-----+-+-8+-+-++++++-++--
+--+-+++-++-+-8--------+--+--++-+---+4-++-++-
++----+-9+---+--+------+--+--+-++++-++-+++-++
+-+7++--+-+7++-++-+++--+-+++++----++6+--9--++
--++-++--++-+-+-++-+++-+-++-+++--+----++++9--
++-8+-+-+---+---+--++-+-++---+++-++--+---8-++
--++--+++-+-++++-+---8+-+-+--+---++---++-----
--++++--+++--99--7--+--++++++-----+7-++----+-
--++-++--++-++++--+-468-++----9-+-+8+++++----
+++-++++-++-----+-+---++9+---+--+--+------+++
+++--++-+++--++-+++------+-------++++-++++-+-
+-5+++--++--+--++++--++-++-++8++-+-+-++-++++-
---+-++--+-++---++-+--+-++-+++--++------9-8+7
4-+-+-+-7+-++--+-+---+++-+9++++-+-+-+----+--+
-++-++---++----+-++-8---9+++-+--+-------+--+-
-+--+8-+9--+-+-++-+-+++++++-+8-+-8+9+++---+++
----++++++-+++-++++-+++---+-+-+++-++----+--++
---++-++++-+-+--+-+9++----+++--+++---+---+++-
+--+--8-++----+9-+--+++-+9++----+++-++-----++

Generation = 124, Population = 570.
-+--++---+++--++++-+--+++++--+-+++---+++-++++
+-+-+++++-+-----+----+++-+-++-+++--+-++-+++--
+++--+------+-+---+--+-++----+---++++--+++---
++-+-+++-+-----++--++--+---+---+-++-++++----+
--++++-++++------+-+---++++--++--+-+--+-+---+
--+---+++-++-++--++++-----+---+--+++--+-+-++-
++++---+------+---+---++--++-----++++-+--++-+
+--++-----+-+--+--+++--+++-+--++++-+-++-----+
+---+--++++-----+-+-+--++-++-+-----+++-+++-+-
-+------++----+---+-+++-++++---++++--+-------
+++++-+-----+----++--++--++++++-++-++-+-+++++
-+-+--+++-++---------+---+++-++++--++-+-+++++
+-+-++++----++--+--+--+----++-+-+++--+++++-++
--+-++--++-+++-++-----+++-+++-+-+-++-++-+-+-+
----+++-+--+-+---+---+---+++++--+++-+-+---+-+
++++-----+---+--++++-+--++-+--+-+-++-+-+++-++
++++-+-----+++-+++-----+--++--+++++---------+
+-+-+-+-++++---++++++-++-+--++-+------+--+---
-+++++++++--++-+++--++--++-+++--+--++-+--+-+-
+-++----+-+-+-+++-+---+-++-----+++---+-+-+-+-
-------++++++-+--+---+-+---+-+++++-+++---+--+
+-+-++-------+----------++++--++--+-+-------+
+-+++++++-+--+-++--+---+++-+-+++----+++-+--++
-+-++-++-++-+---++-------++-++++++++-+----++-
----+--++-----+---++-+-+--+++++--+-+++++--+--
++---+++-+++-+---++-+--+--++-+--++++--++-+--+

*** Life<FredkinCell> 27x25 ***

Generation = 0, Population = 88.
00-----00----0-----0-----
----------0--------------
--------------0-0--------
---0-0--------0----0-----
------------------------0
------0--000----0--------
-00--0-----00--0----0----
-0-------0-----0--0--0---
0---------------00-------
--------------------0----
---------0------0--------
--------------0-------0--
------------0--0---0---0-
--------0--0-00----------
-----0--------------0----
------0-00---------------
--0000---0----0----------
-0-------------0---------
---------0--0-----0--0---
-----------000----00-----
----------------------00-
------------------0-----0
-------------------------
-0-----0--0--0----------0
0-----------------0------
0-------0--------------0-
-0----0-0----0----------0

*** Life<FredkinCell> 8x5 ***

Generation = 0, Population = 33.
00000
00000
0-00-
000-0
--000
00-00
00000
000-0

Generation = 28, Population = 22.
77---
7-+-7
8-+4-
4-+95
-----
68-++
5+---
7-++6

*** Life<FredkinCell> 44x31 ***

Generation = 0, Population = 183.
--------0---------0----0-0--0--
0---------0--0--------00-------
-0------------------0----------
----------------0----------0---
0-----------00-------0----0----
-------0--0-----00--00---0-0---
------0--0-0----0--0-----0--0--
-0--------------0----0-0-0--0-0
---------------------------0---
-----0------0-0--------------0-
------0--0-0--------0----------
0-------------------0----------
---0---------0----0--0----0----
0-------0-0--0-----------------
-------0----0------------------
-0-----0----------0------0-0-0-
---0------0-0-----0------------
-----------0---0-000-----0-----
0--------------------00--------
------------0----------0-------
------0----------00-------00---
-------0---------------------0-
---------------0--------0----0-
---------0--00--0--------------
------------0----000-0---------
---------------------0--0-0----
-----0----------------0--------
----00--------------0--0-------
----0----0---------0-0--0---0-0
----0-0-----00-----0-----------
------------0-----0-----------0
------0---0---0-0-------------0
----00-------00----0-0----0---0
--------------00-------0-------
-0------0----------------0--0--
0-------0---0---0--------------
----------00-0--0----0-------00
--0----0---0---------0---------
0--------0-0-----------------0-
-0------------------0-------0--
---------0------00-----------0-
-0--0--------0-------0-------0-
---------0--------0-------0----
-----------0-------0-----------

Generation = 50, Population = 675.
-++---++----8--+----8------+---
++----+---8++++--+---+-5--+--8-
---+---+-78--6-89+---+-5-+7-98+
9+---++----67-98--2-+-+-++----9
85--++---++--8-+-+--+9-997-8---
--6----46--6+---4++-+-++---7--+
8--4-++++6-----4--++8--++---+++
+-+6---+-----+-+++-----6---++--
79999---+++9++7+++---+--9--9-67
++--8+4-++-9--9-5+5---7++-----+
+7+++98-+-9--65-9--+-+++--767--
7-+8-++-+-9-++---69+++--9+-++4-
++9+8++++-++-+----97+96+-8+---+
+++---+-++----+-9-+++-9------+8
-6++-+--++-+-+93---+-++8-+9-9+8
+-+---3-+--8+++-----++---+----+
-+--------+----+++----7765--+--
-++--6+--+--++-+--+--++9--6++--
-+-+--+-++-++++-+++------+--8-+
----98----++85-+-8++-----+87++-
-++9--9+++++-+---8-+7-5-++-7--+
---8-9-776++-++-+--+-+8-+-797-9
-----988---++-+----+4+-----+-+9
9+88--9-+++-8-----+7+--+---+6+-
-7++-++-++-9+--+----++----+----
-9----+9---++-+--++++-+--+--+-+
-+-7-8-+6++---8-+-99+++9++-7--+
9+8++598--+-+----+-++-45-6--+++
+--9--+6+--6-----9+---5-9-8+9--
+-+---8+----9+---4+--++5-++8+++
--8++-+-+++-9---+----+++---+--7
-9-78+-9+++---+4--7---+-9-76++-
6-7-+--+6--7-+-++-+8++++--6+-++
4+-+9+--7-9+--+-8-++--+-9---+--
+---+++--66----5-+-+--+-+-58++-
+8----+-9--+++------++-+8++-+--
--+-+-8----9+----++-9--7++-+++-
+--++-9+-7++-+-++-+---9---+++-9
--+-+-+++--+8---+67++--++-69+--
-+7+8+54----8-+-+88-++----+++++
--9----++-----++-+-+4-+------++
-+--+--+8--6----+--9++-9--7-++-
-+--+9--3---997+++-------+--++-
+5+--+8++--+-+8-+8--++6++--+---

*** Life<FredkinCell> 24x11 ***

Generation = 0, Population = 142.
-00--------
-00000-0000
0-0-0-----0
-0-00-0----
0-00000--00
-0--00-0000
0--00---0--
0-0-00---00
-000-0-0-0-
----0-0--00
-0--00---0-
-0-00--000-
-0-00-0--0-
-00-0000-00
---00000--0
--000-00--0
--000---000
-000--00-00
0-0-0-0000-
0000-000---
--0-0-00-00
-00----00-0
000--000-0-
000-000--00

*** Life<FredkinCell> 9x20 ***

Generation = 0, Population = 109.
00-0-00-0---0-00000-
0-0000----0-0----0-0
-00---000--0000--000
-000-0000-00-000-000
-0-000000----000-000
0000000-0-0000-00--0
00-000-0-000-0-000--
0000--00------000-0-
--0--0-0-00--000-0-0

Generation = 72, Population = 85.
--+--++-+----++--+--
-++----+8-+++8-----+
------+++-+-++-++-++
+-+-+++---++-+++++--
-+7+---+--+-+--++---
--8++5---+-++---+-++
---+--++++-++--++-+-
-++---+-+-----+-++-+
-++++++---+-+-+-+--+

*** Life<FredkinCell> 33x1 ***

Generation = 0, Population = 32.
0
0
0
0
0
0
0
0
0
0
0
0
0
0
0
0
0
-
0
0
0
0
0
0
0
0
0
0
0
0
0
0
0

Generation = 19, Population = 4.
-
-
0
-
0
-
-
-
-
-
-
-
0
-
-
-
-
-
-
-
0
-
-
-
-
-
-
-
-
-
-
-
-

Generation = 38, Population = 2.
-
-
-
-
-
-
-
-
-
-
-
-
-
-
-
-
-
-
-
-
-
-
-
0
-
0
-
-
-
-
-
-
-

Generation = 57, Population = 4.
-
-
-
-
0
-
-
-
-
-
-
-
0
-
-
-
-
-
-
-
-
-
0
-
-
-
-
-
-
-
0
-
-

Generation = 76, Population = 3.
-
0
-
-
-
-
-
-
-
-
-
-
-
-
-
0
-
0
-
-
-
-
-
-
-
-
-
-
-
-
-
-
-

Generation = 95, Population = 8.
-
-
0
-
0
-
-
-
-
-
0
-
0
-
-
-
-
-
1
-
0
-
-
-
-
-
-
-
0
-
0
-
-

*** Life<FredkinCell> 11x11 ***

Generation = 0, Population = 98.
--0-0-0000-
000-0000000
00-00000000
0000000000-
0000-0000--
0-0000000-0
0-0000-0000
0-00-000000
00000000-00
00000-00000
-0-0-0-0000

Generation = 11, Population = 52.
0----2-----
-523-4--1-1
-2---103---
5-3-3-3-4-6
14---5-54--
-210-4--1-5
-5----5-45-
3-3-2-3-3-2
6----3-----
3242-43---3
-6---242---

Generation = 22, Population = 64.
1-769-----1
38---93-3--
79-27-465--
+15-53+-+28
35-30-+8+--
---------9-
3+-5-5---+-
+-5-4-+-+-4
-2463+3-6+3
7-----7-63-
--45-6-5-76

Generation = 33, Population = 53.
----+--941-
--263+4--91
+-+-+---8-6
+-----+-+--
-7---++--6-
--134+2--+5
-+4--6-++-+
-----------
+---5-6+-+-
+--5-+--86-
-+7-89+--++

Generation = 44, Population = 57.
--+++75-4-1
---8-------
-++8--+++--
+-----+-+--
--49-++++8-
-+-5-+---+-
-+497-+-+++
+1---3+-+4-
---+-+9-+--
-+-7-+---9-
-+-++-++6-+

Generation = 55, Population = 68.
62+-+-7-41-
8---3+-7++1
++++--+-+-9
+-+-+-+-+-+
--6+-+---99
----4+28-+5
-+4-9----+-
+-+-+-+-+-+
+7+-8-+-++-
----1++5-+3
6+++--+-8-+

Generation = 66, Population = 64.
--+-+--+---
9+----9-+--
+-+++--++1+
+-+-+-+-+-+
---+--++-+-
-+---------
3+---++++++
+1+-+3+-+4+
+8---+++++3
+----++-++-
-+++++++--+

Generation = 77, Population = 53.
-2++--+----
-+2--+-+--1
-+--+1---1-
-----------
9-9---+-+-+
0+--4+2+1--
-+-++-+---+
+-----+-+--
+-++-+--++-
++--1++8+--
9+--+++-++-

Generation = 88, Population = 49.
--+-++-+---
-+---+-+-+-
+-+++-++-1-
+1---3+-+2-
++-+-+++--+
-+---+-+-+-
-+-----+-++
+-----+-+--
-----+-+--3
-------+---
+--+--++-++

Generation = 99, Population = 52.
+----+-----
-+2+-+--+-1
-+---1++---
+-+-+-+-+-+
++---+-++--
-+1+-+--1-5
-+----+-++-
+-+-+-+-+-+
+----+-----
++4+-++---3
-+---+++---

Generation = 110, Population = 64.
+-+++-----1
++---++-+--
++-++-+++--
+1+-+3+-+2+
++-+0-+++--
---------+-
3+-+-+---+-
+-+-+-+-+-+
-++++++-++3
+-----+-++-
--++-+-+-++

Generation = 121, Population = 53.
----+--+41-
--2+3++--+1
+-+-+---+-+
+-----+-+--
-+---++--+-
--1+4+2--+5
-+4--+-++-+
-----------
+---+-++-+-
+--+-+--++-
-++-+++--++

Generation = 132, Population = 57.
--+++++-4-1
---+-------
-+++--+++--
+-----+-+--
--++-+++++-
-+-+-+---+-
-+4++-+-+++
+1---3+-+4-
---+-++-+--
-+-+-+---+-
-+-++-+++-+

Generation = 143, Population = 68.
+2+-+-+-41-
+---3+-+++1
++++--+-+-+
+-+-+-+-+-+
--++-+---++
----4+2+-+5
-+4-+----+-
+-+-+-+-+-+
+++-+-+-++-
----1+++-+3
++++--+-+-+

Generation = 154, Population = 64.
--+-+--+---
++----+-+--
+-+++--++1+
+-+-+-+-+-+
---+--++-+-
-+---------
3+---++++++
+1+-+3+-+4+
++---+++++3
+----++-++-
-+++++++--+

Generation = 165, Population = 53.
-2++--+----
-+2--+-+--1
-+--+1---1-
-----------
+-+---+-+-+
0+--4+2+1--
-+-++-+---+
+-----+-+--
+-++-+--++-
++--1++++--
++--+++-++-

Generation = 176, Population = 49.
--+-++-+---
-+---+-+-+-
+-+++-++-1-
+1---3+-+2-
++-+-+++--+
-+---+-+-+-
-+-----+-++
+-----+-+--
-----+-+--3
-------+---
+--+--++-++

*** Life<FredkinCell> 34x40 ***

Generation = 0, Population = 223.
----0------0------00---0--0----0------0-
------00--0-----------0----0---0----0000
--0---0-----0-0----0---------------00---
------------0------------00--0-0-----0--
0--0-------0-0--0-----------0-----------
---------0------------0--------00-------
---------------0---0-0------0----------0
00--0---0----------------------0------0-
---------00----------0-0----00-----00-00
--00---------0-----0--------------------
-0-----------------0-0----000-----------
----------------------00---0---0--------
----0--------0----------0-0---0--0------
-----0--------0-------0-0-----0--0----0-
-------0----0--0---0----0-------00---0--
----0----0----0--------------------0---0
---0--0---0-------00-------0-0-----0----
----0--------------00----000-------00---
---0---0-------0------0--------0--------
---------0----0-0-0----------0-----0----
--0-------0-------0-0------00---0-------
---------------0--00-0-0-------------00-
0-----------0----0------00--------------
0--0---0--00---0-----0------------------
-----0--0----0-----0-------0-----0------
--0-----------0-----0------0-0-0-------0
---0---0---------0--0--------0----------
----------0----------0-------0-0-----0--
--000-0---00-----------0--------000-----
-------0---0-------------------------0--
000-----0---00--0----0----000-------0---
-------0----------------------0-0---0---
---------0--0----000--00--0-0-------00--
-------0---0---0------------0---0-------

Generation = 44, Population = 681.
------+-------++----++-------+8-+-8--7++
-9----5--+68-+-8-++9+-----77---7+--9--+8
-6-+-8-79--+++++-+-+++68+5++--7-+--+---8
8--+----++++-+-6---+-7-++-8-9-+-7+898--9
+--++-9--+--+-+-3-+89--+5+++--7----+--4+
----5-+-+-6+---7--+-3954--++9------788-5
---+---+9-+-8-8967++4+-98++8-+-++88-+-+-
--+5---++-9+8--++-+-8+-9+5-6+99---979+--
+-6---+--+-+--+-++--8+++88-99------+++++
7--+7--+++5-+78+8+-+---+7----6+-5---7++-
--+--9----+88--++--7--+++89++7-8-+-8+-++
---+----------5--+-8---+--+-7-5+-+6+-+--
+---+6-4+7-++---5----8-8--8-8-++365-+--9
--9--8---++-+--++++6---+-++798--7-+---++
------+---5--8++-++6-+---5+++--9-+9--66-
+++--7+-9---9---+----9-+9----++++++-+-+6
7----+-+-----+-++-749++-++---+-+++-8-96-
--9---7-+8-+7-7+-9+---8--++-++-9-+---+6+
--+-++--+4--7+++-+----7-----8-------+--9
8++-+++-3-++7-+------7-9--96-8-9+---+85-
++-++++-8-8-++-+--+++9-++-----+-4+--+---
7++-8+5-+---+---69+-3+-+------9+-+---+--
-57-98+-+--+--------8--7+--+-+-9+-6++8++
-9+--++-+--+++---8+++-++9-++-+-+8++7+9+-
----889--+-+-93-+--+6--+-75-76++4++---9+
-9+8-6--9+-++--9--4+9+-+8+-+-6-7---+676-
5-9--8++5-9-+-55-7-4+++-66-7+--++--++-5-
6------+-+----9--7+9-+++-7-8------8-57-+
--+++-+-+----8+----+-+++++--4++++-++-4-8
84--69----+7+497-8--6-++7+----+99-----96
+-+98-6---8--+----6++-+85-88----+--9+-+-
-----4+--++--8+--+9---5-58--8++++-+--7+8
------+--9+6++-+-+-++-7-9-9-----+5-++-8-
-+---98--7--8-7+---9-7-++9+++---7-+-++--

Generation = 88, Population = 682.
+--+--++-+-+-+-++++--+++++++++---+-+--+-
++--+-++---+--++--+-++++++-+++----++++-+
--+++---+----++++--+--+++-+-----+++----+
+-+--+---+--+-+--+--+-++-+---+-+-++++-+-
--+-++-+--+-++-++-+--++-+-++--+-+-++++-+
++--------++-+-+-++-+---++-+-+--++-+++-+
8++-+--+++-+------+---++++-+++--+++--+++
----+-++---+++-+-+--+++-+---+-------+-++
++-+----++---+--+++-+++++-++-+--++--+-+-
++-+-++++-+-+++++----+---+-+---+-++--+++
-++-++--+-+-++++++-+-+-++++++--+---+++--
--+--+-+---+--+--+-++-+-+++-+++-+---+-++
--+++-+---+++++-+++-+-+++-++--+++-+--+--
-+-++--+-++--++++-+-+-+--+-++-++++--+++-
+++--+-+-+---++-+-+-+++++--++--++-++--+-
+-+---+++--+--++++++----+--++-++++------
-+++-+-+--+-++--++-++-+-+---+++--++++-+-
-++-----------+-+--++++++--+-+++++------
---+-+----+++-+-+-------------++--+---++
-++-++++++--+--++--+-+++-++-+-------+--+
+-+--+-+-+-++--+--+---+++----++-------++
--+-++++-+---+---++++-+++++-+--+++++-+++
----++--++-+--+--++++--+-+-----++-+-+---
---++--++--+++--++-++--+-+--+++------+++
-++-+-------++---+-+++++----+++--+-+-+-+
--+-++-++++++-+-+---+++--+-+-+-+++++-+-+
+--+++++--+-+-+++---++-+-+++-+-+++++--++
+---++-+++-++--+-++----+++--+-----+++--+
+++--+-+--+++-++---+----++++----++--+-+-
+-+---++-+--+9+++-++-+---+-+++-+-++++---
-++++++---+---+-++--+--++-++++----++++++
++--++++---------++++-+----+++---++-+--+
--+-+-++-+++----+--+---+-+++---++-++---+
-+++-+--8++---------+---++---+--++-++++-

Generation = 132, Population = 677.
++++++++--+++-+++--++-+--+--++-+--+--+++
+-+-++++-+----+++++-++--+---++------+-++
++-+++++---++-+-++-+++++--+--+--+--++-+-
-+--+-++-++-++-+++++--++-++++-+--+-+++++
++--+-++-+++-+-------+-+-+++-++--++-++++
++-+-++--++-+++++-+----+++-+-----+++-++-
-+-+--+--+---+-++-+++-+-+-----++-+--+--+
+-++--+-+++--+--+--++++---++--+-+-+--+--
++-+----++-+--+++-+-+-+--+++---+--++----
-+----++-++-++-+--+--++----++++---++++-+
---+-+---+----+++-----+-------+++++-+-++
----++--++++-----+-++----+----++-++-----
---++-+++-+++--+-+--++++++--+++--++-++-+
-+-+-++--++---+--+-----+--++--+-++-++--+
-+-++--+----+-++------+++-+-+---+-----+-
----+-+---+-+-+-+-+-+---+-+-+-+-+--++-++
--+++-+++-++-++--++----+--++-+--++-+++-+
--++-++---+-+-+-+--+-++--++++-+-++++-++-
+-++-+-+-+----++--++-++-----+-+-+-+--+-+
+-+--+-++-+++-+++-----+++-++--+++++--++-
-+-+-++---+-+-----++-+-+--+--+-++--++---
+++----+-++++++--++--++--+-+++++-----+--
-+-+-+++-----+-++-++-----+++-+--++--++++
+-------++-+--+-++---------+++-++-++-++-
--+++-+--+-+++--+-+-++++---+---+-----+-+
-+-++-++--++-+---++-++--+---++-+-+++++--
-+++-+-+-+-+----+++-++-+++-++-++++---++-
----+--+--+-+-+-+--+--+++--+-++-+---+++-
-+-----++++-----+-+----+-++-++++++++----
-++----++-+-+++---++++-++--+-+-+++-+++++
++++++-++++-+++--+-++++---+-++-+-++-++--
-+--+-++-+--++-++---+-++-----+-+--++--++
+-+++-+---+-+-++-++++++-+++----+++---+--
-+-++--+-+-+--++--+++++---+----+--+-+-++

Generation = 176, Population = 702.
++-+++-+--++--++--+++-+++-+-++--++++++-+
-+--+-++-+-------++-+-+++-++---++++-++--
-++--++-++-+-++-++--+++--++--++---+-++--
----++-++-+--+--+--++----+-+-+-++-+---++
---+-++-----+----++++-+++-+++-++-++++++-
++-+-+-++-+-+++-+----+---+-++++++++-+-+-
+++---+-+--+-+---++-+++++---+---+-+--++-
++-++-+-+-+-++++-+--+---++-+--+-++-++---
++++-++--+-+-+-+-------++++--++-----+---
+-+-+-++--+-+-+--++++++++--++-+--+--+---
-+-+------+-++-+--+-+--+-+-+--+++--+++++
-+-+--+++---+---++++-+---+--++-+--++---+
--+-+--++-+--+-----+-+-+--+-++---+---+-+
-+-++-++--+--+-++--++-++++---+-++-+-++--
++-++---++---++--+--++-++++-----++---++-
+++-+-+-++--+-+---+-++++-++-++-++--++++-
+++++++--++---+-+++----+-+++---+-+--++--
+++++-+-+-++-+-++---+-+---++--+-++---++-
-+++-++++-----+---+------++---+-----++++
+++-+--+-+---+-+++-+---+---+--+--+-++++-
--++++-----++++++----+------+--+++++++-+
--++-+-+++---++---+-++----+-++-+--+-++++
+-++++--+-+--+---+-+++---+--++++++--++--
++-++-++-+++--+-++-++++-+++--++--+++--+-
--+-++--++++--++++------++-+-++-----++++
-+--++-+++-+-+++-+++---+--++-++---+---++
-+++-++--++--+++++--+++---++++-+-++--+++
--++-----++-+-+---++-----++---+--+-+--+-
-+-++--++--++-++--+-+-+--+++-++---++-+-+
-+--+-+-+++++++++-+++-++------+-++--+++-
+-+-+----+-++++-++-++-+--++++--++++-+-+-
+++---++-+++-++++----+++++-----+++++-+-+
-++-+++++-++++--++++---+--------+-+-+-+-
+-++-+--+++++-+-+-++-++-+++-+++--+-+-+++

*** Life<FredkinCell> 41x20 ***

Generation = 0, Population = 116.
----00------0----0--
-0---0-------------0
-0----0-------------
--0----0---00-------
----0----0-----0----
-0------0-----0-----
-0--0-0-00----------
------------0-0-----
0--------0-----0-000
-0------------------
---0-0-000-----0----
0--00---------------
-----------0--------
------00------0-----
-0-------0----------
0-0------------0----
--0------------0-0--
--------------0-----
0---000-----0--0----
-----0----00--0-----
-0------------------
-----0--------0-----
-0---0--------------
-0---------------0--
--0-0-0-------------
------0-------------
-0------0--0------0-
-0-0-0--------0--0--
0-0-----------------
----0---------------
------0---0--0------
-------0------------
0-0-------------0-0-
---0----------------
---0----------------
----0--000----------
0------0-0-0--------
---------------0----
---------0---0--0---
---0----0----0-0----
-0------------0-----

Generation = 79, Population = 425.
--+++-+----++---+-++
+--+-+--+-++-++-++--
-+-++---+-+--+++---+
-+--++--++--+++-++-+
-+--+--+-++-++++--++
--++----+++++----+--
++--+-+--++-++--+-++
--++8-++------+-++--
++---++++--+---+---+
+-+-+++--+-----++++-
++-+--+-+-+8-+-+--++
--+--------+---+-++-
++++-----+--++--++++
+++-++-+++--+-+----+
--+++-+++--+--+-++++
+++-+++-+-++-++++-++
+-+++++--+---++++++-
-++-++--+++--++--+++
----+-+--+-++-+--+-+
+--+++--++---+-----+
-++--++++-+++-++--+-
++--+-+++-+--+---+-+
++-+++--+-++++-++---
-+------++-++----+--
++--+-+-+-+-+---++--
-++-++-++-++-+--+9-+
-+--++-+-+-+-++++--+
--+---+----++++-+--+
+-++++++++-++-+-+-+-
+--+--++-+--++--+-++
+--+++--++--++++++--
7--+--++++-----+-+++
-++-+-++--+++++-----
++--++++-----+++--++
---+-+++-+++---+++--
--+++++++++--++--+-+
-+-++---+-+++++++-+-
-+--++--++9+++++++-+
-++++--+++--+----+-+
--+--+--+-+---+---++
+-+----+9-++-++--++-

*** Life<FredkinCell> 33x20 ***

Generation = 0, Population = 65.
----0-----0----0---0
--0---0-----0-------
--------------0-0--0
--------------------
-----------------0--
--------0----00----0
0------0------------
-----------0-----0--
--------0-----------
---------00----0----
------00------------
--------------------
----0---------------
---------0----------
--0------0--0---0---
-0--0---------------
-----------0-0-----0
-----0--------------
----------0---0-----
------------0-0-----
0---0------------0--
--------------------
-----0-----00-------
----0---------------
-----0----------0---
----------0---------
--------------------
--0------0---00-----
----------0---------
0---------------0---
---0----------00--0-
-------0------------
-------------0----0-

Generation = 69, Population = 322.
+9+-+---++++-7++9--+
-9--+9+--+------+---
+---++--498-+-+---++
---+----+-+-+++--+-+
---++--+---+++--+---
+-+5-++-+-+-+---+++-
9+++-+----+-++++-+-+
5--+++8++-++8++-+---
+++-+-+7--++++--+---
----++--+-+--+-+--++
85-+9++--++----++-++
--++--++-++-++----++
--9-8-++-++++--++--+
++-+--+-++--+-++--+-
--9+9-+----+--+----+
+++-+++-+++--++--+-+
++----+++-+++--+++++
--++---++--++-+----+
-+---+--+--+-+++---+
+---+----+--+++---+-
++-++++-++---+---+-+
+-------8++++++----+
-------++-----+-+---
----+-----+--++++-7-
-+--+-989----+-++-+-
---++++-++++-----+++
+++-+++-++-+7-+-+--+
-+-++---++--+--+-++-
-9++-+-+7+-+++------
++++-+-++5-4+--+-+++
+--+-----+--++--++-+
+--+---+--8++-++-+7+
---+-++--+-+-+--++--

Generation = 138, Population = 334.
+---++--++-+---+++-+
---+---+++-+-----++-
---+----++---++-+-+-
+-+++----+++++-++-++
+++---+-++----+++-+-
-----+-+++-+-+-+--+-
+-++---++-+-++-++-++
-+--+++-+-+--++--++-
--+-+-++++-+-+---++-
++++-+++++++--+-----
+--++-+----+-++-++-+
-+-++----++-++++++--
++--++-+--+++-----++
-+++-+---+--+----+--
+---+-+++-++++---+-+
++--+-+----++++---++
-+++---++-----+--+++
+-++--++--+----+--+-
----++-+++---+--+-+-
---++------+-++-+-++
----++-+++--+-++-++-
++-------++-----++++
----++++++--++-+-+-+
++++++-++-+++-+++-+-
-+----+++--++-++++++
-+---+---+-++----+--
+++++++++---++-++++-
++--++-+-+-+-+-----+
-++++-++-+-+-+-+----
+-+----+++++++++++++
+-++-+++--+-+---+-+-
--++++-+--++-+-++-++
++-++--+-+-++-+----+

*** Life<FredkinCell> 32x45 ***

Generation = 0, Population = 48.
--------------------------0------------------
----------------------------0----------------
---------------------------------------------
----0--------------------------------0-------
0-------------0------------------------------
-----0----------------------0----------------
---------------0----------------0------------
---0-------------------0-----------------0---
-------------------------------------0-------
-----0---------------------------------0----0
---------------------------0-----------------
----------------------------0--------------0-
-------------------------------------0-------
-----------------------0--0------------0-----
---------------------------------------------
-------------------------------------------0-
------------------0----0-----0---------------
-------0---------------0---------------------
---0---------------0-------------------------
------------------0----------------0---------
---------------------------------------0-----
-------0---------------------------0---------
---------------------------------------------
------------------------------------0--------
--------------------------------------------0
---0----------0-------------0------0-------0-
-0----------------0--------------------------
--------------------0------------------------
---------------------------------------------
------------------------------------------0--
---------------------------------------------
---------------------------------------------

Generation = 51, Population = 741.
--56552----69-+----2+5-6-5----+-625-679-+4--+
7--6---85-54-0--49839--6365-+6+--6-5----++-++
-8-----434-34-+------+9---+---+7-8+--55-738--
-----++5+-6---+8855-+-+-++6+-6++-2-+9-8++-+--
66-+---5-3----++--79857-6--4-9-7-689-+-944-3-
+7+---9+5--6+-+3++-58---------+--85+--5-8-9-+
--+--932+-6--++---+----4--+8+8+-----7+8--387-
1-8-9-5+--9-----------3+---9-7-695--+9-+-----
62--6--------5-4--6--+3+5-+++8-7+9----4-+5--5
-8-+--8-6--+9-+-8+++6-9--+-----59-8----+-68-7
--8-4813-+-57--877+-666+8-+-4-87757--5---747-
-15-6-8+---693-79-+557-++--+62---4+---7---+--
-----1-70--3-87--6+8-----+-63+77--6+5-3---3-8
26----5-++-5-----+9----+9+9++7+888--8-56--569
++7--7-94-7-45-+6--+-65---+-76-83-8-8---6---7
1-6+8--+3----537-26----31---+1-+---+----976+-
52-++58--6-7--4--8---+-+863-+--++-----8+--+--
7-5-6+295---+596--+--+-+--4++---68--+34+--996
-77---4-296---7-+--+9---559+-68-4+6+4+-+84---
--8---7---97-5-3--48767-+5+5+----77-++5++--+-
-8-7--2-35541--584++-9--8+++--+-6--94+-----8-
-3857+5-5---9+9-9----6+-8--++75--+5+---8-4+--
-+++3--33-+67+-7457-+---4+-+-3-6--7-8-787-+-7
-6-+-+--9--7+39----+-86-677+9-8-+----55+-96++
----5-4-43+4----+--+----+--+-7+7-86--+7-98879
++7-+-6-+7+-8+++96+--8+---9+-4+9+5-+--5--+---
568-+-5--7---+-+-5+96+-9-9+++9+--+---8--+-+-6
8-++--------8--963-8+-+-+1+-+86+-6-+++--7-4+-
5-67------5-75-++5--4--83-8621-4-3873--+---1-
-7-8-+-9--+9-779-5---2----+----4+86---+--51--
7----25+4---+------+-85-2----7-6-3-96--8-2-27
6-7+9-7423-9-5-+-------+6-++-63385-++4++-46--

Generation = 102, Population = 728.
+---+-9----+-++--+-8++-++-+---+6+-+-----+++-+
+-6+-+-+---+-6+++--+++++8--+++--++-+--++--+-+
---+-----+-++-----+-+++-----+-------------+++
+-++-+-++-+-+--+-----+--+--++--+-+-+--+-+++++
------++--+++--+-+++++--++---+++--+-+--+---++
--+---++-+-+-------+---+--+-++-++-+--+----+-+
++-++++-----+-+++8-+------+---++-+-+--+-++--+
+++++------+-+--+--+--++--+-++++-++-+----+---
---+++++++--++---------+++-+++-++--+--+++--+-
+-+++++-+++++++++-++--+-----+++--+-+-+-++--+-
++++----------+-++-+-++-+-+--+-+-----++-++++-
+--+++-+-+-+++++-+-----+-+++--++++++-----++++
-++++-+-+---+++--++-+++-+-++--++++---++--+++-
-+-+++---+-+-++---+-+---+++-----++-+-+-++-+--
+-++++-+-+-++--+-+++--+++--+-+----+-+-9-+-++-
--+++--+---++-+-------+++-+-+----+--++-++++++
--+-++-+-+-+-+++-+++---+-+-+++--+++--+---+++-
----++8++--+-+-+9++-++-+--++--+---+-++---+-+-
++---+-+--+---++--++-+--+++-----9+--++-+--+--
++--+++++-++-+-+--+-++++++---+----+--+-+-+++-
---++--++++-4--+-++--+--++++++--+++--+9---++-
-+--++---++----++--+++--+++-+--++++-+---+----
-+++---++++++++-++-++-++--+--+-++-++++--+--++
--++--++++-+---++-+-+-+-++--++++--+++-+--+-+-
+---++-+++++-++-+--+---+--+---+--+++--++-+++-
--++--+-+++-+--++++++-+-+-++-+-++-+-+--+++++-
+--+-+++-+--+-++---+++++-++-----+---+++--+--+
+++---+++++--++---++----+9-++--+-------+++-+-
-+--+--+7--+++-+--+-++8-+++++9+-+++++-++--7-+
+-+--++++++++--++-+--++-+++++++-+++-+-+-+++++
--+---+++---+-++++++----9-+-+---+-+----+5++8+
++-+-++++-8-+---++++--+--5------+9--++--+-++-

Generation = 153, Population = 729.
--+++-+--+-++---+++++---+--+++--+++++---+-+-+
++++++---+-+---+-+--+--++----+---+-+-++-+++++
++-++++-++++++--+++--+--+++--+--+--+----++-++
-+--++--+++++----++-----+++-------++----++--+
+++--+++++++-+-+-+++++-+-+-+--+-+--+++---++-+
++-++-+++-+-++++-+++++-+-+-+++++-+--+-+++---+
++++-+-+-+---++-+-+---+++-----+---+-++--+-++-
+--++-+-+-+--+--++++--++++-+-+++-+++----+++--
+++++++++---++++-++++-+--+--+-++++--++-++---+
-++--+-+----+-+---+++++++--+-+-+-+-+--++++-++
+--+--------+-++++-+++-++-+-+-++----++-+++---
-+-+--+-----+-++----+++---++--+-+--++--------
-+---++-+++---++-+++-+-++-++-++++--+-+---++--
--++--++-++++-++--+++-+-+----++++---+--+---+-
++---+--+-+-+++--+--+---+-+----+------++--++-
-+--+++--+++++++-+-+-+-+--+-+-++----++++-++--
+--+-++-+----+-----++--+--+-+----+-+--+--++--
+-++----+---+----+-+-+-+++++---++--+--+++-+++
+++-+++-+-+----++++++++++-+-+-+--++-+++-+-+-+
-++-+-+---+--++---+--+-+------++--+-++-+-----
-++++--+---+------++--++++------+++-++++++--+
--+-+-++---+---+++--+--+-++--+++--++--+-+--++
--+-+++-++--+-++++--++++----+-++--++-+--+-+++
-+++----+--+--+--+--+-++--++-++-+++++++--++-+
+-++---+--+--+-++-+----+--+-+--+--++--++-+++-
+--+++--+--+-+--+++---+-++++++++---+-+--++---
-++--++++---+-+-+----+++----+--++----+++-+-++
+--+-+++------+---+-+-+--++++---+--++-++-+++-
-+--+-+-+---++++++-+-+++++-+++--++-+-+--+++++
---+-+-++--+--+++-+-++-+-+--+--++-+--++-+-+--
--+-+-++++--------+-+----++-+---++++-+-+--+-+
++++-+-+--++++-+-++++--+++-+-+--++--++--+++++

*** Life<FredkinCell> 11x26 ***

Generation = 0, Population = 58.
0---0--0--0-------------0-
----0--0---------0-0----0-
--000-----0----0----------
-00-0----0-----------000--
0--000--0--0--0-0-0---0--0
-------------0--------00--
---------0------0---0--0--
-00--0-----000-0----------
-----0-----0-0---0----0---
0-----------0-0-----------
--------0---0----0--------

Generation = 45, Population = 136.
7++-+-++----9+-+---9--+9+-
-++-+--87+--9-++---+5--+++
-+--+-++-8--+----99+--+--8
6-----9+----+----++-+-++6+
--++---9-9-++----8--++-4-+
++----8-----++-+4-8+--6++-
-+4---+---9+---4---+++---4
---+-+--8+9--+-++-+-++--++
-+----+--8++-+--+-+++-+-++
+-8+-+--9--++-+6--8-+-+9+-
+--8+++8-99+9--9----++-8--

*** Life<FredkinCell> 46x45 ***

Generation = 0, Population = 37.
--------------------------------0------------
---------------------------------------------
-0-----------------------------0-------------
---------------------------------------------
---------------------0-----------------------
---------------------------------0-----------
-------------0-------0-----0-----------------
--0----0------0------------------------------
--------0------------------------------------
---------------------------------------------
---------------------------------------------
----0--------0-------------------------------
--------------0------------------------------
---------------------------------------------
---------------------------------------------
---------------------------------------------
---------------------------------------------
---------------------------------------------
----0----------------------------------------
--------------0------------------------------
---------------------------------------------
0--------------------0-----------------------
---------------------------------------------
--0------------------------------------------
-----------------------0---------------------
---------------------------------------------
-------------0----------------0--------------
---------------------------------------------
-------0-------------------------------------
-----------------0----------------------0----
---------------------------------------------
-------------------------0----0--------------
---------------------------------------------
---------------------------------------------
----------------0----------------------------
---------------------------------------------
----------------------------0----------------
---------------------------------------------
------------------------------------------0--
------------------------------------------0--
----------------------------0--0-------------
---------------------------------------------
---------------------------------------------
---------------------------------------0-----
---------------------------------------------
----------------------0---------0------------

Generation = 63, Population = 1019.
-7-++++-+-+-8--+-++-+-9-8++-67-7+--69-+5-8-+8
+--8+-27-----++--++-----5-5-433828884-6+---86
--+--+-8--+--+9-+--+5-88+-7--++++--9----+++--
+5-3--97+7-49+-----9+-8--8+3-5-----4--6-5-+-7
+77-+-89-+9+----+-7---+--+++-+-++-658+--6+7--
-++7-+--+----+-+8---5+9-8-7--+-++-59-6-+-8-47
---896----8+5--+-+7+6----+7-+-------79--69+++
-5---+4-89+-++9+++----7--8--+--9+-789-9-97-6-
--+8--+-4--8+--+----+--+-2-+++-++-95-+-----+-
--667-+-+--5---4-+95-5---7-7++----------+9-67
-+-76-5-+9+5---8-+-++-7+47--9-7++-+3-+-856+-4
+-9-+-8-----+-++-+9-8+8---7--+775-4+---+8+386
-7-49-+++++--7+---+8--+-4--+-8+96---++8-9-8--
--+2------+58+-----8--4--+----++-+6-9-7994--3
--+---85+----------+7++6--+9----266-+9-796-7-
-7+--9+-5+87++----6---++6-88+-+-27---65-5----
9+-++9-8-----9+--3--6-+77--4+---9-----8+7--4-
+-84--+--685---3+--9---6-7---6++8--------8+-2
+++-6---+4-7+--++-+---+++-78-9--+5----35-392-
---5-89++-+-+++------+-8+++7-9--379--+8+--+6-
++--++---+-99-7-+-4-+-6-+-9--++9-++86++6+-+-+
79+-+--45-84-++------+-+97+-5--++-+--9++8-+6-
-+--+8+-8+5-++++9-+---+++-7-6---78+---+6-4-7-
-+-7--+7---7+-8-+--+-464-+94-+-7---6----+-93+
9+-----9-+-+-+4++7---+9--8+++-+-----6-9--8-7+
+-+----+---+29+-6++76+--+-8748---------------
++-+--+++74--+-+-+-----+-+-++8------+-6--8-8+
----++46--8---7-++-78++-3-8---+87--5---95+-67
++--+-9---94---5+--9--86-+--9-+-8+8----6-----
++95+++--+-+5--42-+----++--5--+++-+7--+6-+-8+
-5--+--4848--++-------5-4-7--8---3-6736----96
-+--7--8-+8--++-+-+--+-78---8--9+-7------++--
5--8++48+--4+------58-+6--+6---+-+--+-5-486-+
-+466--+8--+9-7-5--58+8--8+7--6-+--+----73---
-+-+-----4+-------6-3---+94-7+-+--+---77+---+
9++5-----+--9-9-8+-89++87+-65+8--+---66----67
++--+---+8-3----795+7---8-+++++-66--+9--6-+5-
8----8-+9-----88-+-+-8+-5++-9++-8--+8--+--9--
+-9--------7-9-896+9697----8-6--7-88--+--4+--
9--6-+-7--8------+-887--++--+7-+8-+--+--+8-4-
+59-----+9---9+6-94----+6+6-8--+--+-+--5+-+-+
8-+3-7--88--6+-+--+-+++7+++-7-7--7----7+-4-3-
-6-59-83--+++8+49-+-6+-++7--2---+---214-9-+--
--6-+856--+-9797+-6---5-+--++8++---86--+-6---
---5--6-658--8-6--+2+---7-847--+--36----6----
----+-++8--6-++7-+--9+5++-68---6+++----------

*** Life<FredkinCell> 14x32 ***

Generation = 0, Population = 121.
---000--00--0-0------000-00-000-
--0--0-------00-----0-0------0--
-----0--------------------0-----
-------0-00--00-0----0000--00-00
--00--00--00-----0--0-------0-0-
0------000------0-0----00-------
---------------0-0---0-0-0----0-
---0------00-0-----00-----0--00-
-------0---00--0------00---00-0-
-----000-----0-----00----0------
-00----0-0----00--000-0--0--0---
-------------000-----0--0-------
0-----0-0-00---0-00-------------
0--0-0---0------0--0-0----00----

Generation = 82, Population = 220.
-+-------++--+-++--++8++-++++--+
-+-+-+--+--+-+-+-++-+++++-+-++++
+++-++--+++-++++-+++++----+++--6
------+++-+++-+---+--+-7----+---
--+--++++++-+++++--+++----++--+-
+-+--++-+---+--+--+++-++---+--++
----+-+---++--+++-++------+-++--
-+-+---+-+---+---++-+++-----++--
+++--+---+--++--+--+---+-+---++-
+++-++--+-----+++-+----+++---+++
----+-+-----++++--+++++++---++-+
+++-++--+-+-++-++-+-++--+-+-+--+
+-++-----++-++-+-+---+++++-+++--
---++++---++-+-+--+-++-+-+--++-+

*** Life<FredkinCell> 10x14 ***

Generation = 0, Population = 93.
0----00-00-000
0----0000-0--0
-0-0-00000-000
00--00000-0000
000-000-0--0-0
0--0--000000-0
0-000000-0-0-0
0000-00-0000-0
0000-0000-0-00
0-000-0---0-0-

Generation = 16, Population = 72.
660441------0-
-7-442-37-----
----5---3843-5
5-4-1--68363--
7--365334---4-
1--55-87+724--
-361--22-35---
-2-2-7--0294-2
--6-43----3-20
55-3-49----25-

Generation = 32, Population = 69.
-+--+5-+-+8-19
5+47--99+-+---
------4--++7+-
++6-3------59-
-+-+------4+--
5-++-5++-+6---
+8+-+-+7+6--8-
--6-898--6++--
+-9+--7--6-++6
6+-----+6---+7

Generation = 48, Population = 71.
-++---++----9+
7++---+++---+4
-878+98-+-+--8
++----+-+-+9+-
--++-+-4--6-+-
+++++-++--++2+
-+---6+---+--+
7-9+--+-6--++-
-+--+++6-9----
+-++-----++--+

Generation = 64, Population = 74.
+--+-+--+-++--
+--+++-++--+-9
-+-8----+++-+-
+-----++-+++-+
+++-++++--++-+
--+-++++--+---
-+---7+++--++-
+-+-+--+9++--+
--+-+-+-++++-+
-+---+-+++++-+

Generation = 80, Population = 75.
++-++-+++-++-+
--++-+----+-+-
+++-++---+-++-
++++--+++++-+-
+-+-+-+-+++--+
-++-+-+++-++++
-+----+-+--+--
-+---+++++++--
--++--++-++++-
+---+++-------

Generation = 96, Population = 74.
++-+++-+---++-
--++++-+--+---
--+++-+-++++-+
--+-+-++++--++
+-+-+++++-++-+
---++-++---+++
+-++-----+-++-
---+--++----++
-++--+-+--++--
+--++-++--++++

*** Life<FredkinCell> 9x40 ***

Generation = 0, Population = 179.
-00--0-00-00--0-----0-00000--00----00000
0-0--0--0--0-0---0--0--0---0-0-00-0-00--
0--00-00--000---0-0-0000-0---0-0-000--00
0000-000-00-0-00-000--00-------000000---
-----00-000--0-0-----00-00----0--00000--
0----0--00---000-00-0000-00-000000-0-000
0-00-0000----0-0--------0-0-0-0---0---00
--0-000-0-00-0--0--000-00000--00-0---0--
-00------0-00---0--0-0000---0--0--000-00

Generation = 73, Population = 189.
++++-++--+---+--+++-+----+-++--++7----+-
++--+----+-+-++++---++++--+----+-+-+---+
-+-+-----+-+----+---+---+-++---++-+--+++
+--+-+-+---+++---+++--++-++-+-+-++-+-+--
-++++--+++-+9+-+-++--+++-+--++++++-+-+--
---++-+---++++++++-++++-+--++-++++-++-++
----+-+-+-+-+-+-++-++-+++--+++----++---+
-+--++-++-+-+-++-+--+-+----++--+-+-+--++
--+++-+-+-+++++++-++++++-+7-++-++++-+-+-

Generation = 146, Population = 174.
-++--+++---+---+-++-+-+---+--++---++---+
+++-+-+++--++--+-+----++++++++---+-+-+--
+------+---+++++-+--++-+--++-----+-----+
--+-+-++-+--++----+-+-+-+--+-----+--++-+
-+++-+----++++-+++--+-+-+----+--++++--+-
----+-+++--++-++++++-++--+++--+-+-----+-
++++-++++-+--+-+-+--++++---+--+----+++-+
+-+----++--+-+--+-+-+-++---++-+-++++++-+
-+-+++--++-+----+-+-++-+++-+--+++--++-+-

*** Life<FredkinCell> 15x33 ***

Generation = 0, Population = 174.
-00-00-000-------000-0--000-00--0
---0-00-------------00000---0-00-
00--0-000-0---00---0----0-0--0--0
00------000-0-0-00---0--00--00-00
00-00-0-0-----------0-00-00-00---
---0--0-0----------------------00
00-00---0---00-0---00-----000-0-0
-00------0--0-0-0----00-0-------0
-000---0-------0-0---0-0-----0-00
0----0---0---0---------00-0000---
------0-----------0-0-0-0--0-0---
--0-00-----0--------0---0------0-
-00-0-0-00-00--0-0-0--0-0-0-0--0-
----0---0-0-00---0-00----00---0--
000--0-0-----0--0-0---0----0--0--

Generation = 13, Population = 253.
-4--556634-5-5--49--52-3---136-5-
-41-254--5--3283-3--55-4-3-331-62
-433--1--5---342-4-4-76-0-3--5-2-
45142-3522-3237442-24-8--1-2-+661
---13-4--33-31----42-5---1----5--
2-4677-244---53--4-1-24----2-0465
2-42--9-7--5-----4-----1---3--293
--3------42-3-410-3461-010-127--3
3--2-7344-32--22-4--3---852-334--
-03-563--1--3-44-111--2--1-7--36-
---21--4-76-2--22141252-3435--6--
---5-7-2--2-3---374-5-5-3-3--0-2-
8----7-6-75-144-1-1--3-3---4432--
-1-26---4--54-4--6--------3-422-3
--542--36-4-14--5-----6634-14-3--

Generation = 26, Population = 249.
--58--8+6---6---++-----7--+36---5
-9-94-673--+-4------8+55+-+--97+-
+5--3146-5-68-+--8-+598--3-95-+-2
8------6-44---+-747--7+645--3+-8-
4-3--7-7++-5---3-----+-5--5736+--
4-7-+------7-98-67-6-6-39-345-7-5
-4----+7+15-53+--7+------3-8+-4+-
2-643--648-6-4-5----+-------4+-3-
587--+-97+-780--486-+--9+--+--583
---6---4-66-86983-3----5----46---
4-527-58277-71-57-8-7---56569--54
---83+---7-76--7++9-9---65555-674
---45+4-4+--286-85-945--8---7---2
-69++--4--8--3-5+75---84--57+--5-
+---25-89-8--9-8-+7-6-+-5--------

Generation = 39, Population = 243.
-+++-+--+-++------8+-45---+-88--7
3-8-+-8-8+-+-5--++47---+--++7-9+-
-8-+52---9+8+-+-+++-++-7-7+-+++6-
-+-88+9-6--++--+-++6--+7-896--++-
--86+-----+7----7-9---+994-+----9
--+8--+------+-9-+36-8---+-8-2-+7
-5+---+-+-7---++-++--9-----+++4+-
6-86-+-8-+--9+7-9---+-+3778--+-47
--+7-+7-8-4+-6-+7--5-+------7+8-6
8--+9+-69++--------7-7+9-8-+6----
+-95--+-6--6------+-9-56+-6----55
--+----8+8-+--+++-+-+--++--+--9+-
+-+6---9++6+4+-3---+-+-6-5++9--75
--+---9--9++--+--+96---7--------7
+--+7+-+--+9+---+++58----+7---++6

Generation = 52, Population = 241.
----+-+-++-+-+5--+9-+--++--9+-+-+
-++--+---+------+--+++-----+++-+-
+-+--7-9------+--++++-++---+--+++
+++-+-++----+9+-++--++++-----++--
65+----++------6+6+9+------------
7----++++---++-+-+6+9++-+-+9-9--9
+--+++------++----+-++-+---++-8++
---8-+89-+8---+-+++-+-+--9-7-+-7+
+-+---+++-6+++9--+--+-----9-7++-+
---+--+--++-+--++---+--+-+++--+-+
+-+68+-----++3-7+-+-+-6+---9---7-
-8-+-++---++--+---+---+--+-+78---
++++++------7+-8-+++7+---9-++---+
-++-+-+9+--++8+-+--+9--+8-++-+79+
+-++++4--+--++-+-++--+-++-+--+++8

Generation = 65, Population = 257.
-+-++--++-+++-++++--+9+++-----+--
--+++++---+----++++++++--+++--+--
++---+-++--+---+++++--+++9+++++-+
+++--+++--++-+++--++++---+-+--+--
+-+---+-----+++8+7-+-+++-+-++-+-+
-8+--++---++-+-++++--+---++--+---
-+-+--+++--++-+-5+--++-+--+++++++
9+-+-++--+-+--+-++++-++-++-9-+98-
-++-+-++--+---+---++---++-+-+-+--
---++--8--+-++---+5+-+-++-+++---+
-++8++++7--+---9++-8---+-++--+---
+++-++-+-++++--+++-----+--+-++---
--+-+-+--++---+9+++-+-+++--+-+-+-
+----+--+--++-++++++--+---+--+---
+-+-+--+-+++-++-+-+-------+--+-+-

Generation = 78, Population = 234.
----++-++-+-+-++++-+-+-++---+++++
----++++++--+---++-+----+-+----++
++---+++-+-++-+-++--+-----+++-+++
++--+--+9--+-+-------+-++---++-++
--+++---+-------+--+---++-++++++-
++++---++++--++----++----+++-++--
+-++-++--+--+---7+----+-87--++-+-
+--++-++-+---++-++-+-----++------
--+-+-++-+-+-++--+-+++-++++-+----
+--+----++--+-----+--++++-----+-+
---+-+-----++--++++-++++---+-+++-
-++--++++++---+++--+----++++-+-+-
-+-+++-+++-+-++-+-+-+---+-+-+--++
+--++--++-+---++++-+----+---+----
++++--8---+----+--++-+++---+++--+

Generation = 91, Population = 274.
++-+-++--+--+-+-++--+-+--+++-+---
+-+--+-+-++-+-++-+++-++++----+---
+-++++--++--+--+-+--+---+--++++++
----++-+-+++---++---++++++++---++
+-------+++-+----+----+-+++---++-
++--+++++-+++-++++-+-++-+--+++-++
++-+-+-+++++++---+-+-------+--+-+
+-+++++++-++-++-++++++--+--+++-+-
---+++++++--+++---+++++----+-+-+-
+-----+-++-++---+-+---+--+++++++-
++++--++++--+7-+-++++-++-+---++++
---+--+-+++++++-++-++-+-+-+--+---
--++++-+---+-+-++-+--+--+-++--+-+
+--++++-++++--++--++-++--++++++-+
++--+--++--+--+++++-+++++-+--++-+

Generation = 104, Population = 252.
-+-++--+-+-+-++-+-+-++++--+--+++-
------+----+-+--+---+++-+--++-+-+
+++-+++--++++-+-+-++----+++++--+-
+---++----+---+--+-+++++---++++--
----+++--+-+++++-+---++++++-++-+-
+++++-++++------+++-++-++-++-+---
++++--+-++++++-++--+-----+----++-
+----+--+---+---+++-+---+-+---+-+
+-+-++-----++++----+++-++--+---++
+++++++--+--+---++++--+-+--++-+-+
--+-++-++-+++-+--++++-+--+--+++++
-+---+++--+++--++-+-+---+++-+---+
----+--+++-+++-+++-++-+--+--++-++
-+-+-++----+--+-+++++-+-++--+----
--+-++--+--+-++---+-----+-+++++++

Generation = 117, Population = 254.
+---++++--++++++++--+--++++-++++-
---+--+--------+---+++-++--+----+
-+-+-+-+++---+-+--++--+-++-+-----
+--++++++++--++---+++++--++---+++
+--++--+++++++++++-+----++++---++
+--+-++-----++---++-+-+++++++---+
+------+-+++--+-+--++-----+++++--
+-+-++-+++--------+--+++-------+-
--+++-+++-++-++++++++-+++-+--++++
+-+--+++-++--+++---+-+-+-++-++-++
+++-----++---+---++-+-+-++--+----
---++-+-+-+-+++-++++-+-+++-+-++--
---+----+-++-+--++-++---+-++++-++
+-+----+--+-++-+-+----+-++-+++++-
++---++-+-+-++----+-++--+-++--++-

Generation = 130, Population = 241.
+-++--+-+-+-----++-+--++---++-+-+
---++----++--+---++-+--++++----+-
+---++--++-+--+----++++++++---+-+
++--+-++---++-+-+--++++-+-++--+++
-++-+---+++-+----++++-++--++--+--
+++-+++-+-+-++---+--+-+++++++----
-++-+-+----+-+++---++-++++-++++-+
---+++--+-++-+-++++---+++-+--+-+-
-+--+----+++-+-+--++---+-++--+---
--+--+-+-+++-+--++---+-+--+--++++
++--+---+-+--+---------+-----+---
-+++-+---+--+++--+-+-++--+++--+--
------++++-------+-++++++--+-+--+
+++-+-+--+++--+++--++-++++--+++--
-----+--++++--+-+++++--++++-++-++

Generation = 143, Population = 238.
--+--+-++---++-++-+++++-+----++-+
-+---+-+-++--+-+-----+++--++---++
--++-++-++++-++--+-+-++--++++++-+
+-----++-----++-+-------+--+-+--+
---+-++--++--+---+-+--+-++---+-+-
-+-++++---+-+--++---++--+-+-+-++-
+--+-+--+-----+++--+++---++--+---
+---++-+-++--++--++++-----+-++---
++--++-----++++-+-+++-+--+---++-+
--+-+++-++-+-+-+-+-+++-+-+-+--+--
--++++-----++---+-+--+--++--++-++
++++-+--++---+-+-++++---------+--
-+++-++-++-+-+----++--++++++++-+-
-++-+-++---++-++-+++--++-+++++++-
-+--++++-+-+++-+-+-----++-+---+--

Generation = 156, Population = 253.
+++-+-+++--+-+-+++-+++-+-----+-++
+++-+--+--+---++-++-++++-++++--+-
++-+-++---++--+----+++--+------+-
+----+-++-+-+-+-+---+-++-+-+-++++
---++++-++-++--+--++--+--++--++--
-+++---+--+++++-+-+-++-+----+----
+-+++-+++-+-+-+-+--++---+++-+---+
-+---++-+++--++-++-++--++-+--++-+
++-+---++-----+-+---++++++++-++-+
--+--+++-++-+---+++-++----+++---+
+++--+-+-+---++-+--+++---+---+--+
++--+-+++----+-+++-++++-+---++++-
-++--+---+--++-++-+++--+---+-+--+
-+--+--++++++-+--+-+-++-+-+-++-++
-+-+-+++-+--------+++++++++--+---

*** Life<FredkinCell> 27x7 ***

Generation = 0, Population = 67.
-00-00-
-------
-0-0--0
-0----0
--0-0--
---00--
------0
0--000-
--0--00
-000-00
0-0000-
-----0-
0-----0
--00-00
-------
0--0--0
-----0-
0--0--0
-00-00-
--0--00
--00-0-
----0--
---0-00
00-0---
------0
----0--
--000--

Generation = 11, Population = 97.
3-5---0
2--1-25
0-21-1-
4------
-0--423
---60-4
-21--2-
-3--2-2
3380-30
-5-3-4-
-1-3--4
25--34-
0216---
03-2121
24--270
13-15-5
4233-2-
--4-3--
1-42-34
-11--4-
-----46
-0-523-
---23--
7--5-4-
---6--0
-341--4
013-2--

Generation = 22, Population = 88.
6--2-5-
--543-7
-1-3---
5---2-8
-2-57--
54-8--9
3-9---3
45-36--
---2---
39-5-7-
2--92--
5--4---
-7-6556
-547-42
--846--
6-5---8
6----63
---5-57
7-7--3-
3-2-+8-
4--6---
-0--734
---+-3-
97--64-
6---38-
---3--9
45+42-3

Generation = 33, Population = 93.
--9---6
---46--
--97+--
-----7+
--669+5
--7-+-+
47-1-67
9-66-5-
-5-45-8
5+----8
--6-5-+
--84--9
----9+6
-+--7--
7-+88+9
--77+-+
--7--+-
466---8
-2+-7--
7+4-+-6
8--88-9
-378--8
-5-+7-7
-+-8--+
-35-6+8
--5-8--
97-9---

Generation = 44, Population = 88.
--+++99
+-+-9++
8++----
-+--9-+
6-6-++-
--+----
6-+-+-+
+---+-+
----9-+
-++--+-
+-++5+-
---5-99
-++-++8
--+----
8++-+--
++-----
-9-+-+-
9++88++
+-+-+-+
8+9--++
--+8---
-7-+-8+
----+-8
--4---+
--9-+--
-+9---+
-----6-

Generation = 55, Population = 103.
--+----
-++--+-
---+---
--+++-+
--7++-+
-+-++++
-8+6+-+
++--++-
---7+--
8---+++
+9+++++
8--+-+-
+--++--
-+--++9
++-++++
++---+-
+-+--++
+----++
+-+9---
8+++-++
-------
+++--++
-+9+++-
-+8-+++
-6---++
+--++-+
+++++9-

Generation = 66, Population = 79.
--+-+--
+++--++
-------
-+-+--+
----++-
------+
---8--+
-+--+-+
+++-+--
---++--
+------
----+-+
-+-+++-
-++-++-
-++-++-
-+--++-
----+--
+-+-++-
--+-+6+
-+-+---
++----+
+-++--+
8-+---+
+-+++++
---+-+-
+---+4+
--++++-

Generation = 77, Population = 73.
-2+----
-++--+-
+-+----
--+--+-
-99+---
+-+--+-
+-+9+--
--+-+-+
--+----
-++-+-+
---+-+-
++-+---
-+--++-
--++---
-+----+
+-+-++-
+++-+++
+------
+-+++--
----+--
-------
+--++--
--++--+
++++---
-8+--++
+-----+
--++---

Generation = 88, Population = 87.
---+-+-
-------
----++-
--+--++
-+-+-+-
+--++-+
-----++
-+----+
---+-++
--+++++
+-++-++
--+---+
++-+---
+++--+-
--+---+
----+++
------+
--+-+++
+-+-+-+
-+---++
+++-+++
-+++-++
-+--+-+
+--+++-
-++-+++
---++--
-++++-+

Generation = 99, Population = 104.
----+-+
--+-+++
+++-+++
-++--+-
-+-++++
-+-++-+
+++--++
-+--+++
++-+-++
+-----+
++++-++
+-+-+--
+++--+-
-+++++-
------+
+--+---
+-+-+-+
++---+-
+-+++8+
-+--++-
+++--++
++----+
-+-+-+-
-+--+-+
++---++
+---+7-
+++++-+

Generation = 110, Population = 95.
+--++--
-+-+++-
-++-+-+
+-+-++-
-+-++++
-----+-
----+-+
-++-+++
--+-++-
--+++--
++--+++
--++++-
--++++-
++----+
+--+-++
-++++-+
+--++-+
+-+--+-
-----9+
---++-+
++--+--
+++-+++
+----+-
++-++--
--++-++
+++-+--
----+--

Generation = 121, Population = 93.
--++-+-
-+-++-+
-+--+-+
+++-+-+
+-+++--
++--+-+
-+--+-+
-++-+--
+++--+-
--+++-+
+--+-+-
++-++--
-+----+
--+----
-++++++
+---+++
-++-+--
-++---+
--++---
--++-+-
---+--+
++-++-+
-++++--
+-++-+-
++++-+-
--++--+
-----++

Generation = 132, Population = 97.
--+---+
--++-+-
--++-+-
+++--++
+-+-+++
+--+++-
-+++++-
+++---+
+++---+
-+++-++
-+-++++
++++---
---+-++
+--++-+
-+-++++
-+--+-+
-+----+
-------
++----+
-+-+++-
-+-+++-
++--+-+
--++-+-
+---+-+
+--+-+-
+---+++
-+--++-

Generation = 143, Population = 99.
--+++-+
-+++++-
++++++-
++++-++
-+--++-
---+++-
+++----
+-+-+-+
+-+---+
+-+-+--
+--++--
-++---+
-+--+++
----+--
+-+++++
----+--
+-+--+-
---+---
+-+---+
+-+-+++
+++-+++
+++-+-+
--+++--
++--++-
-+-++-+
--+++-+
--+-+-+

Generation = 154, Population = 103.
+-++-++
--++++-
+++++++
-+-+---
---+--+
--+---+
---+++-
++++--+
++--+++
++-++++
+--++++
-+-++-+
+-+-+++
+-++-+-
+++----
-----++
-++++++
-++-+++
-+-+---
-+-++--
+------
+++++++
++-----
-+--+-+
--+++-+
+++--+-
----++-

Generation = 165, Population = 86.
-2-+-+-
---++-+
--++---
----+--
+---+--
------+
+---+--
-+-+++-
-+++---
+-+-+--
-+--++-
++-++--
+-+-++-
+++-+-+
++--+++
+----++
+++++-+
+--+-+-
--++++-
++++-+-
+-++-+-
----+++
-+-----
--+-+-+
++-++--
++-----
++-+---

*** Life<FredkinCell> 20x18 ***

Generation = 0, Population = 59.
---------0--0-0-0-
--0---0-------0---
--0--------0------
--------0---------
----0-00--------00
-0-------0-0------
-00-----0-0---0---
---0--------------
0-------0-----0---
-------00--0------
-0---------0------
---0-----00-------
--------0----00-0-
-------0-0-----0--
0-0------0-0-0----
--0-0----0-----00-
--0--------0------
------------------
-------0---0-0----
-------0-------0--

*** Life<FredkinCell> 35x38 ***

Generation = 0, Population = 37.
--------------------------------------
0-----0-------------------------------
--------------------------------------
-------------------------------0------
-------------------0------------------
--------------------------------------
-------------0------------------------
---------------------------0----------
-----------0-----------------0--------
--------------------------------------
--------------------------------------
--------------------0-----------------
--------------------------------------
------------------0-------------------
------------------------0-------------
--------------------------------------
------0-------------------0-----------
----0---------------------------------
-----------------------------0--------
------------------------------0-------
--------------------------------------
--------------------------------------
--0-----------------------------------
--------------------------------------
-------------------------------0------
--------------------------------------
-0--------0---------------------------
--------------------------------------
--------------0--------------------0--
0--------------------0----------------
--0-----------------------------------
-------0--0---------0-----------------
-------0--------000-------------------
---------------------0----------------
--0-----0---------------------------00

Generation = 28, Population = 519.
5-4-522----12--0--132021---34023-1--20
----2---0-3-2-3-5-3--02-6-3-4---------
2---0--21011---01230---53241---2021012
2------2--1------53-6----6--------1-2-
113---734-----20-014--202022-7--14-1--
------3-3---1-5--12--44-11------------
--244--3---60-44--352425---434010--2--
--213-2----2----1-----3-0----51-3---3-
---31---6-5--04---28-666--3-22-1----3-
--3-------5--0---02-2---40---1--------
0--13-3-35-3--37---4--3216421--5------
2-50--2-3-4-5--1----------------77--1-
--4-7----33-4-03-364--2--1-5-30-31--2-
------5-50--107-0-3-5-------33---0----
3-5281-23----5-1--50---00-32-------2--
3-+15-334---6-0----0--3-----8-------30
-5-282--8-76-5848-6--2-2-31-----331-76
-----1--60+-3-+-------2-3-3-----10---1
765-7--2-3-22----7-5--1517----2------5
2-3----12-50----3------26-2-----2--3--
4---634-72-55-6--516342-----262----662
-1--50----3-----------5-----0-2----2-2
6----52-2--1-5--6---3---1-3-23---13---
4---5-7-6--46-12----9------22--1------
3--42--8449864-3+43---2--46--3-414-2--
5---4-5---4-5-----5---2---3----1--20--
7-1-8-4--77-5--75--0---39-2---1-255---
--4-----4-7-4--18-41----2-8----2------
--566---1--34-535----64-7451-4-5-5---3
53---14---------2-----2---416-43------
6---+-8-4-5-8-62---5--742--406----3-+9
------3-----2-6-3--3---3------6----1--
+-----+3+---69--5-85-6-+-9-223--63-+-+
-----4--------------3---2-33----------
--4-5----23---2----78--2-7-4-6-++4-97-

Generation = 56, Population = 609.
++-+++--66-4-9-++--+9----6-7-1--64--+6
--9-------9-5-8---9---9---9---------3-
-6-+---6-5-----4----8-+-----471+--7-8-
356-8+---64-46--8-7--96-+-8-+8596---82
-7---+--7--968--8----+63----5-----3-5-
-3--7----9--------+-5--86-----84--4---
-9++++++++--5-++85-+-+--8587+---+2-537
--4--3----6-4--7----5--86------47----6
48-+87--+--+9-++-+-+-+-+9-4-9--+---+--
-59-8----4--8-----+-5-65+-6-5--73-----
---8---+7+---69+79-56--5--6-8-4-1-----
+3+-+46---+--7+---8-99-58----9--+-4-37
5---+7-1+-----+-9--+398-+-9-----93----
+0---19--2--6-+348-----8--+-+--23-4-46
+7+-+-87-9++++2-9-9-+-4894--+7-+471-96
-5+----8--+-9--35-9-+---+---+8--7--864
-8+8--+6-7-+5+-9+-+-+-6--89+---+-9+---
+1--846--7+-+--445----88+---1-965-+-34
+----8+-+---6--7++8--888-+-6--4-----8-
--+--78-5-+-9582-----4----+-87--+-----
+-9--+--8---+7+9+-7+-8-7-6-+-+5-+--+--
32--+3-+-6---663-4--9-67+76-53+3--5--6
+---++4++-+-++96-++--9669-+4++5-+-+-++
-------4++6-----+-8-+3--+-6--7--1+----
---667++-6-++-8--789---+-9+--87--8-6++
91+--5+948---6-746+-9--86+---4464-4--8
---7+-+-+----+++------+-++---+-4---+--
8---9--2-----6----+--+6-------------3-
-+--+---+--+---6-+---++++----+-9+7--+8
-9+--48++9--+8-+-8--+7-4-6---7+9-+9--8
9----5+-6-68-++---89+-+-9----+++6555+-
+-------+-+--+--76+--8--79+-------9---
++-8+-+---++--9+--++-9+--++7++--+7-+-+
94--+8-+-++--4+697---+-788---6+5-7---+
+-5+---+--------6-+--+-86+---+--+----+

*** Life<FredkinCell> 2x27 ***

Generation = 0, Population = 48.
00000000000000000000-000000
0000--000000-0000--00000000

Generation = 33, Population = 25.
---+-++++---7-++++--5-----+
-8+--++++----5-++-2--+--+-+

Generation = 66, Population = 26.
+-+++-+-+--+-+-++------+--+
-+-+-++--+-+--++-85++----++

Generation = 99, Population = 24.
-++-+++----+----++-++++---+
+--+++--++--++-+-----+--+--

Generation = 132, Population = 24.
-++--++--+++++-+-+---+---++
--+-----++-+-+++----+-+--+-

Generation = 165, Population = 28.
-+++++--+---+-++-+---++++--
+-+--++-++-+-+-+--++-++---+
